%YAML 1.1
%TAG !u! tag:unity3d.com,2011:
--- !u!29 &1
OcclusionCullingSettings:
  m_ObjectHideFlags: 0
  serializedVersion: 2
  m_OcclusionBakeSettings:
    smallestOccluder: 5
    smallestHole: 0.25
    backfaceThreshold: 100
  m_SceneGUID: 00000000000000000000000000000000
  m_OcclusionCullingData: {fileID: 0}
--- !u!104 &2
RenderSettings:
  m_ObjectHideFlags: 0
  serializedVersion: 9
  m_Fog: 0
  m_FogColor: {r: 0.5, g: 0.5, b: 0.5, a: 1}
  m_FogMode: 3
  m_FogDensity: 0.01
  m_LinearFogStart: 0
  m_LinearFogEnd: 300
  m_AmbientSkyColor: {r: 0.212, g: 0.227, b: 0.259, a: 1}
  m_AmbientEquatorColor: {r: 0.114, g: 0.125, b: 0.133, a: 1}
  m_AmbientGroundColor: {r: 0.047, g: 0.043, b: 0.035, a: 1}
  m_AmbientIntensity: 1
  m_AmbientMode: 0
  m_SubtractiveShadowColor: {r: 0.42, g: 0.478, b: 0.627, a: 1}
  m_SkyboxMaterial: {fileID: 10304, guid: 0000000000000000f000000000000000, type: 0}
  m_HaloStrength: 0.5
  m_FlareStrength: 1
  m_FlareFadeSpeed: 3
  m_HaloTexture: {fileID: 0}
  m_SpotCookie: {fileID: 10001, guid: 0000000000000000e000000000000000, type: 0}
  m_DefaultReflectionMode: 0
  m_DefaultReflectionResolution: 128
  m_ReflectionBounces: 1
  m_ReflectionIntensity: 1
  m_CustomReflection: {fileID: 0}
  m_Sun: {fileID: 0}
  m_IndirectSpecularColor: {r: 0.44657898, g: 0.4964133, b: 0.5748178, a: 1}
  m_UseRadianceAmbientProbe: 0
--- !u!157 &3
LightmapSettings:
  m_ObjectHideFlags: 0
  serializedVersion: 12
  m_GIWorkflowMode: 0
  m_GISettings:
    serializedVersion: 2
    m_BounceScale: 1
    m_IndirectOutputScale: 1
    m_AlbedoBoost: 1
    m_EnvironmentLightingMode: 0
    m_EnableBakedLightmaps: 1
    m_EnableRealtimeLightmaps: 1
  m_LightmapEditorSettings:
    serializedVersion: 12
    m_Resolution: 2
    m_BakeResolution: 40
    m_AtlasSize: 1024
    m_AO: 0
    m_AOMaxDistance: 1
    m_CompAOExponent: 1
    m_CompAOExponentDirect: 0
    m_ExtractAmbientOcclusion: 0
    m_Padding: 2
    m_LightmapParameters: {fileID: 0}
    m_LightmapsBakeMode: 1
    m_TextureCompression: 1
    m_FinalGather: 0
    m_FinalGatherFiltering: 1
    m_FinalGatherRayCount: 256
    m_ReflectionCompression: 2
    m_MixedBakeMode: 1
    m_BakeBackend: 0
    m_PVRSampling: 1
    m_PVRDirectSampleCount: 32
    m_PVRSampleCount: 500
    m_PVRBounces: 2
    m_PVREnvironmentSampleCount: 500
    m_PVREnvironmentReferencePointCount: 2048
    m_PVRFilteringMode: 0
    m_PVRDenoiserTypeDirect: 0
    m_PVRDenoiserTypeIndirect: 0
    m_PVRDenoiserTypeAO: 0
    m_PVRFilterTypeDirect: 0
    m_PVRFilterTypeIndirect: 0
    m_PVRFilterTypeAO: 0
    m_PVREnvironmentMIS: 0
    m_PVRCulling: 1
    m_PVRFilteringGaussRadiusDirect: 1
    m_PVRFilteringGaussRadiusIndirect: 5
    m_PVRFilteringGaussRadiusAO: 2
    m_PVRFilteringAtrousPositionSigmaDirect: 0.5
    m_PVRFilteringAtrousPositionSigmaIndirect: 2
    m_PVRFilteringAtrousPositionSigmaAO: 1
    m_ExportTrainingData: 0
    m_TrainingDataDestination: TrainingData
    m_LightProbeSampleCountMultiplier: 4
  m_LightingDataAsset: {fileID: 0}
  m_LightingSettings: {fileID: 4890085278179872738, guid: 797fc6c11207e5b4892a181950058fc4, type: 2}
--- !u!196 &4
NavMeshSettings:
  serializedVersion: 2
  m_ObjectHideFlags: 0
  m_BuildSettings:
    serializedVersion: 2
    agentTypeID: 0
    agentRadius: 0.5
    agentHeight: 2
    agentSlope: 45
    agentClimb: 0.4
    ledgeDropHeight: 0
    maxJumpAcrossDistance: 0
    minRegionArea: 2
    manualCellSize: 0
    cellSize: 0.16666667
    manualTileSize: 0
    tileSize: 256
    accuratePlacement: 0
    maxJobWorkers: 0
    preserveTilesOutsideBounds: 0
    debug:
      m_Flags: 0
  m_NavMeshData: {fileID: 0}
--- !u!1001 &387840
PrefabInstance:
  m_ObjectHideFlags: 0
  serializedVersion: 2
  m_Modification:
    m_TransformParent: {fileID: 618600095}
    m_Modifications:
    - target: {fileID: 4578466178321354, guid: 4a40092bbc207004fa51b938b96005eb, type: 3}
      propertyPath: m_RootOrder
      value: 3
      objectReference: {fileID: 0}
    - target: {fileID: 4578466178321354, guid: 4a40092bbc207004fa51b938b96005eb, type: 3}
      propertyPath: m_LocalPosition.x
      value: 0
      objectReference: {fileID: 0}
    - target: {fileID: 4578466178321354, guid: 4a40092bbc207004fa51b938b96005eb, type: 3}
      propertyPath: m_LocalPosition.y
      value: 0
      objectReference: {fileID: 0}
    - target: {fileID: 4578466178321354, guid: 4a40092bbc207004fa51b938b96005eb, type: 3}
      propertyPath: m_LocalPosition.z
      value: -45
      objectReference: {fileID: 0}
    - target: {fileID: 4578466178321354, guid: 4a40092bbc207004fa51b938b96005eb, type: 3}
      propertyPath: m_LocalRotation.w
      value: 1
      objectReference: {fileID: 0}
    - target: {fileID: 4578466178321354, guid: 4a40092bbc207004fa51b938b96005eb, type: 3}
      propertyPath: m_LocalRotation.x
      value: -0
      objectReference: {fileID: 0}
    - target: {fileID: 4578466178321354, guid: 4a40092bbc207004fa51b938b96005eb, type: 3}
      propertyPath: m_LocalRotation.y
      value: -0
      objectReference: {fileID: 0}
    - target: {fileID: 4578466178321354, guid: 4a40092bbc207004fa51b938b96005eb, type: 3}
      propertyPath: m_LocalRotation.z
      value: -0
      objectReference: {fileID: 0}
    m_RemovedComponents: []
  m_SourcePrefab: {fileID: 100100000, guid: 4a40092bbc207004fa51b938b96005eb, type: 3}
--- !u!1001 &59135291
PrefabInstance:
  m_ObjectHideFlags: 0
  serializedVersion: 2
  m_Modification:
    m_TransformParent: {fileID: 618600095}
    m_Modifications:
    - target: {fileID: 4112097546394478, guid: 9aeb31f3dfa2d3f41af8ea1b97d4a12c, type: 3}
      propertyPath: m_RootOrder
      value: 9
      objectReference: {fileID: 0}
    - target: {fileID: 4112097546394478, guid: 9aeb31f3dfa2d3f41af8ea1b97d4a12c, type: 3}
      propertyPath: m_LocalPosition.x
      value: 20
      objectReference: {fileID: 0}
    - target: {fileID: 4112097546394478, guid: 9aeb31f3dfa2d3f41af8ea1b97d4a12c, type: 3}
      propertyPath: m_LocalPosition.y
      value: 0
      objectReference: {fileID: 0}
    - target: {fileID: 4112097546394478, guid: 9aeb31f3dfa2d3f41af8ea1b97d4a12c, type: 3}
      propertyPath: m_LocalPosition.z
      value: -30
      objectReference: {fileID: 0}
    - target: {fileID: 4112097546394478, guid: 9aeb31f3dfa2d3f41af8ea1b97d4a12c, type: 3}
      propertyPath: m_LocalRotation.w
      value: 1
      objectReference: {fileID: 0}
    - target: {fileID: 4112097546394478, guid: 9aeb31f3dfa2d3f41af8ea1b97d4a12c, type: 3}
      propertyPath: m_LocalRotation.x
      value: -0
      objectReference: {fileID: 0}
    - target: {fileID: 4112097546394478, guid: 9aeb31f3dfa2d3f41af8ea1b97d4a12c, type: 3}
      propertyPath: m_LocalRotation.y
      value: -0
      objectReference: {fileID: 0}
    - target: {fileID: 4112097546394478, guid: 9aeb31f3dfa2d3f41af8ea1b97d4a12c, type: 3}
      propertyPath: m_LocalRotation.z
      value: -0
      objectReference: {fileID: 0}
    m_RemovedComponents: []
  m_SourcePrefab: {fileID: 100100000, guid: 9aeb31f3dfa2d3f41af8ea1b97d4a12c, type: 3}
--- !u!4 &59296192 stripped
Transform:
  m_CorrespondingSourceObject: {fileID: 4112097546394478, guid: 9aeb31f3dfa2d3f41af8ea1b97d4a12c, type: 3}
  m_PrefabInstance: {fileID: 59135291}
  m_PrefabAsset: {fileID: 0}
--- !u!4 &131576883 stripped
Transform:
  m_CorrespondingSourceObject: {fileID: 4539776123664966, guid: e47736c9193f7dd4d8dc3eef50ba64c0, type: 3}
  m_PrefabInstance: {fileID: 261337515}
  m_PrefabAsset: {fileID: 0}
--- !u!4 &145095808 stripped
Transform:
  m_CorrespondingSourceObject: {fileID: 4748122837939596, guid: ad19842cc2550fc488240fe1efb03aeb, type: 3}
  m_PrefabInstance: {fileID: 1899278540}
  m_PrefabAsset: {fileID: 0}
--- !u!1001 &261337515
PrefabInstance:
  m_ObjectHideFlags: 0
  serializedVersion: 2
  m_Modification:
    m_TransformParent: {fileID: 618600095}
    m_Modifications:
    - target: {fileID: 4539776123664966, guid: e47736c9193f7dd4d8dc3eef50ba64c0, type: 3}
      propertyPath: m_RootOrder
      value: 8
      objectReference: {fileID: 0}
    - target: {fileID: 4539776123664966, guid: e47736c9193f7dd4d8dc3eef50ba64c0, type: 3}
      propertyPath: m_LocalPosition.x
      value: 20
      objectReference: {fileID: 0}
    - target: {fileID: 4539776123664966, guid: e47736c9193f7dd4d8dc3eef50ba64c0, type: 3}
      propertyPath: m_LocalPosition.y
      value: 0
      objectReference: {fileID: 0}
    - target: {fileID: 4539776123664966, guid: e47736c9193f7dd4d8dc3eef50ba64c0, type: 3}
      propertyPath: m_LocalPosition.z
      value: -15
      objectReference: {fileID: 0}
    - target: {fileID: 4539776123664966, guid: e47736c9193f7dd4d8dc3eef50ba64c0, type: 3}
      propertyPath: m_LocalRotation.w
      value: 1
      objectReference: {fileID: 0}
    - target: {fileID: 4539776123664966, guid: e47736c9193f7dd4d8dc3eef50ba64c0, type: 3}
      propertyPath: m_LocalRotation.x
      value: -0
      objectReference: {fileID: 0}
    - target: {fileID: 4539776123664966, guid: e47736c9193f7dd4d8dc3eef50ba64c0, type: 3}
      propertyPath: m_LocalRotation.y
      value: -0
      objectReference: {fileID: 0}
    - target: {fileID: 4539776123664966, guid: e47736c9193f7dd4d8dc3eef50ba64c0, type: 3}
      propertyPath: m_LocalRotation.z
      value: -0
      objectReference: {fileID: 0}
    m_RemovedComponents: []
  m_SourcePrefab: {fileID: 100100000, guid: e47736c9193f7dd4d8dc3eef50ba64c0, type: 3}
--- !u!1001 &384340796
PrefabInstance:
  m_ObjectHideFlags: 0
  serializedVersion: 2
  m_Modification:
    m_TransformParent: {fileID: 618600095}
    m_Modifications:
    - target: {fileID: 4478339252019722, guid: 821cb84404cdb734481db5d7b905b37a, type: 3}
      propertyPath: m_RootOrder
      value: 7
      objectReference: {fileID: 0}
    - target: {fileID: 4478339252019722, guid: 821cb84404cdb734481db5d7b905b37a, type: 3}
      propertyPath: m_LocalPosition.x
      value: 20
      objectReference: {fileID: 0}
    - target: {fileID: 4478339252019722, guid: 821cb84404cdb734481db5d7b905b37a, type: 3}
      propertyPath: m_LocalPosition.y
      value: 0
      objectReference: {fileID: 0}
    - target: {fileID: 4478339252019722, guid: 821cb84404cdb734481db5d7b905b37a, type: 3}
      propertyPath: m_LocalPosition.z
      value: 0
      objectReference: {fileID: 0}
    - target: {fileID: 4478339252019722, guid: 821cb84404cdb734481db5d7b905b37a, type: 3}
      propertyPath: m_LocalRotation.w
      value: 1
      objectReference: {fileID: 0}
    - target: {fileID: 4478339252019722, guid: 821cb84404cdb734481db5d7b905b37a, type: 3}
      propertyPath: m_LocalRotation.x
      value: -0
      objectReference: {fileID: 0}
    - target: {fileID: 4478339252019722, guid: 821cb84404cdb734481db5d7b905b37a, type: 3}
      propertyPath: m_LocalRotation.y
      value: -0
      objectReference: {fileID: 0}
    - target: {fileID: 4478339252019722, guid: 821cb84404cdb734481db5d7b905b37a, type: 3}
      propertyPath: m_LocalRotation.z
      value: -0
      objectReference: {fileID: 0}
    m_RemovedComponents: []
  m_SourcePrefab: {fileID: 100100000, guid: 821cb84404cdb734481db5d7b905b37a, type: 3}
--- !u!1 &497615739
GameObject:
  m_ObjectHideFlags: 0
  m_CorrespondingSourceObject: {fileID: 0}
  m_PrefabInstance: {fileID: 0}
  m_PrefabAsset: {fileID: 0}
  serializedVersion: 6
  m_Component:
  - component: {fileID: 497615741}
  - component: {fileID: 497615740}
  m_Layer: 0
  m_Name: Directional Light
  m_TagString: Untagged
  m_Icon: {fileID: 0}
  m_NavMeshLayer: 0
  m_StaticEditorFlags: 0
  m_IsActive: 1
--- !u!108 &497615740
Light:
  m_ObjectHideFlags: 0
  m_CorrespondingSourceObject: {fileID: 0}
  m_PrefabInstance: {fileID: 0}
  m_PrefabAsset: {fileID: 0}
  m_GameObject: {fileID: 497615739}
  m_Enabled: 1
  serializedVersion: 10
  m_Type: 1
  m_Shape: 0
  m_Color: {r: 1, g: 0.95686275, b: 0.8392157, a: 1}
  m_Intensity: 1
  m_Range: 10
  m_SpotAngle: 30
  m_InnerSpotAngle: 21.80208
  m_CookieSize: 10
  m_Shadows:
    m_Type: 2
    m_Resolution: -1
    m_CustomResolution: -1
    m_Strength: 1
    m_Bias: 0.05
    m_NormalBias: 0.4
    m_NearPlane: 0.2
    m_CullingMatrixOverride:
      e00: 1
      e01: 0
      e02: 0
      e03: 0
      e10: 0
      e11: 1
      e12: 0
      e13: 0
      e20: 0
      e21: 0
      e22: 1
      e23: 0
      e30: 0
      e31: 0
      e32: 0
      e33: 1
    m_UseCullingMatrixOverride: 0
  m_Cookie: {fileID: 0}
  m_DrawHalo: 0
  m_Flare: {fileID: 0}
  m_RenderMode: 0
  m_CullingMask:
    serializedVersion: 2
    m_Bits: 4294967295
  m_RenderingLayerMask: 1
  m_Lightmapping: 4
  m_LightShadowCasterMode: 0
  m_AreaSize: {x: 1, y: 1}
  m_BounceIntensity: 1
  m_ColorTemperature: 6570
  m_UseColorTemperature: 0
  m_BoundingSphereOverride: {x: 0, y: 0, z: 0, w: 0}
  m_UseBoundingSphereOverride: 0
  m_UseViewFrustumForShadowCasterCull: 1
  m_ShadowRadius: 0
  m_ShadowAngle: 0
--- !u!4 &497615741
Transform:
  m_ObjectHideFlags: 0
  m_CorrespondingSourceObject: {fileID: 0}
  m_PrefabInstance: {fileID: 0}
  m_PrefabAsset: {fileID: 0}
  m_GameObject: {fileID: 497615739}
  m_LocalRotation: {x: 0.40821788, y: -0.23456968, z: 0.10938163, w: 0.8754261}
  m_LocalPosition: {x: 0, y: 3, z: 0}
  m_LocalScale: {x: 1, y: 1, z: 1}
  m_Children: []
  m_Father: {fileID: 0}
  m_RootOrder: 1
  m_LocalEulerAnglesHint: {x: 50, y: -30, z: 0}
--- !u!1001 &559983127
PrefabInstance:
  m_ObjectHideFlags: 0
  serializedVersion: 2
  m_Modification:
    m_TransformParent: {fileID: 618600095}
    m_Modifications:
    - target: {fileID: 4720436039580920, guid: 0478b1e28fd9831458b0f051b9d2ad8b, type: 3}
      propertyPath: m_RootOrder
      value: 0
      objectReference: {fileID: 0}
    - target: {fileID: 4720436039580920, guid: 0478b1e28fd9831458b0f051b9d2ad8b, type: 3}
      propertyPath: m_LocalPosition.x
      value: 0
      objectReference: {fileID: 0}
    - target: {fileID: 4720436039580920, guid: 0478b1e28fd9831458b0f051b9d2ad8b, type: 3}
      propertyPath: m_LocalPosition.y
      value: 0
      objectReference: {fileID: 0}
    - target: {fileID: 4720436039580920, guid: 0478b1e28fd9831458b0f051b9d2ad8b, type: 3}
      propertyPath: m_LocalPosition.z
      value: 0
      objectReference: {fileID: 0}
    - target: {fileID: 4720436039580920, guid: 0478b1e28fd9831458b0f051b9d2ad8b, type: 3}
      propertyPath: m_LocalRotation.w
      value: 1
      objectReference: {fileID: 0}
    - target: {fileID: 4720436039580920, guid: 0478b1e28fd9831458b0f051b9d2ad8b, type: 3}
      propertyPath: m_LocalRotation.x
      value: -0
      objectReference: {fileID: 0}
    - target: {fileID: 4720436039580920, guid: 0478b1e28fd9831458b0f051b9d2ad8b, type: 3}
      propertyPath: m_LocalRotation.y
      value: -0
      objectReference: {fileID: 0}
    - target: {fileID: 4720436039580920, guid: 0478b1e28fd9831458b0f051b9d2ad8b, type: 3}
      propertyPath: m_LocalRotation.z
      value: -0
      objectReference: {fileID: 0}
    m_RemovedComponents: []
  m_SourcePrefab: {fileID: 100100000, guid: 0478b1e28fd9831458b0f051b9d2ad8b, type: 3}
--- !u!1001 &615843213
PrefabInstance:
  m_ObjectHideFlags: 0
  serializedVersion: 2
  m_Modification:
    m_TransformParent: {fileID: 618600095}
    m_Modifications:
    - target: {fileID: 4766139130558152, guid: aa5781bb5b506524782c6e082a5127e9, type: 3}
      propertyPath: m_RootOrder
      value: 12
      objectReference: {fileID: 0}
    - target: {fileID: 4766139130558152, guid: aa5781bb5b506524782c6e082a5127e9, type: 3}
      propertyPath: m_LocalPosition.x
      value: 20
      objectReference: {fileID: 0}
    - target: {fileID: 4766139130558152, guid: aa5781bb5b506524782c6e082a5127e9, type: 3}
      propertyPath: m_LocalPosition.y
      value: 0
      objectReference: {fileID: 0}
    - target: {fileID: 4766139130558152, guid: aa5781bb5b506524782c6e082a5127e9, type: 3}
      propertyPath: m_LocalPosition.z
      value: -75
      objectReference: {fileID: 0}
    - target: {fileID: 4766139130558152, guid: aa5781bb5b506524782c6e082a5127e9, type: 3}
      propertyPath: m_LocalRotation.w
      value: 1
      objectReference: {fileID: 0}
    - target: {fileID: 4766139130558152, guid: aa5781bb5b506524782c6e082a5127e9, type: 3}
      propertyPath: m_LocalRotation.x
      value: -0
      objectReference: {fileID: 0}
    - target: {fileID: 4766139130558152, guid: aa5781bb5b506524782c6e082a5127e9, type: 3}
      propertyPath: m_LocalRotation.y
      value: -0
      objectReference: {fileID: 0}
    - target: {fileID: 4766139130558152, guid: aa5781bb5b506524782c6e082a5127e9, type: 3}
      propertyPath: m_LocalRotation.z
      value: -0
      objectReference: {fileID: 0}
    m_RemovedComponents: []
  m_SourcePrefab: {fileID: 100100000, guid: aa5781bb5b506524782c6e082a5127e9, type: 3}
--- !u!1 &618600094
GameObject:
  m_ObjectHideFlags: 0
  m_CorrespondingSourceObject: {fileID: 100294, guid: be6e94088b4313d4fa5bf5d55eba5958, type: 3}
  m_PrefabInstance: {fileID: 0}
  m_PrefabAsset: {fileID: 0}
  serializedVersion: 6
  m_Component:
  - component: {fileID: 618600095}
  m_Layer: 0
  m_Name: StarSparrowExamplesModular
  m_TagString: Untagged
  m_Icon: {fileID: 0}
  m_NavMeshLayer: 0
  m_StaticEditorFlags: 0
  m_IsActive: 1
--- !u!4 &618600095
Transform:
  m_ObjectHideFlags: 0
  m_CorrespondingSourceObject: {fileID: 400294, guid: be6e94088b4313d4fa5bf5d55eba5958, type: 3}
  m_PrefabInstance: {fileID: 0}
  m_PrefabAsset: {fileID: 0}
  m_GameObject: {fileID: 618600094}
  m_LocalRotation: {x: 0, y: 0, z: 0, w: 1}
  m_LocalPosition: {x: 0, y: 0, z: 0}
  m_LocalScale: {x: 1, y: 1, z: 1}
  m_Children:
  - {fileID: 1692458545}
  - {fileID: 850354335}
  - {fileID: 1644940473}
  - {fileID: 1164609135}
  - {fileID: 1763176923}
  - {fileID: 2123746356}
  - {fileID: 145095808}
  - {fileID: 766404204}
  - {fileID: 131576883}
  - {fileID: 59296192}
  - {fileID: 908628092}
  - {fileID: 1516114339}
  - {fileID: 1810757339}
  m_Father: {fileID: 0}
  m_RootOrder: 2
  m_LocalEulerAnglesHint: {x: 0, y: 0, z: 0}
--- !u!4 &766404204 stripped
Transform:
  m_CorrespondingSourceObject: {fileID: 4478339252019722, guid: 821cb84404cdb734481db5d7b905b37a, type: 3}
  m_PrefabInstance: {fileID: 384340796}
  m_PrefabAsset: {fileID: 0}
--- !u!1001 &841654839
PrefabInstance:
  m_ObjectHideFlags: 0
  serializedVersion: 2
  m_Modification:
    m_TransformParent: {fileID: 618600095}
    m_Modifications:
    - target: {fileID: 4801533614458288, guid: 668f40e714e20ed499014cc822acdb9f, type: 3}
      propertyPath: m_RootOrder
      value: 10
      objectReference: {fileID: 0}
    - target: {fileID: 4801533614458288, guid: 668f40e714e20ed499014cc822acdb9f, type: 3}
      propertyPath: m_LocalPosition.x
      value: 20
      objectReference: {fileID: 0}
    - target: {fileID: 4801533614458288, guid: 668f40e714e20ed499014cc822acdb9f, type: 3}
      propertyPath: m_LocalPosition.y
      value: 0
      objectReference: {fileID: 0}
    - target: {fileID: 4801533614458288, guid: 668f40e714e20ed499014cc822acdb9f, type: 3}
      propertyPath: m_LocalPosition.z
      value: -45
      objectReference: {fileID: 0}
    - target: {fileID: 4801533614458288, guid: 668f40e714e20ed499014cc822acdb9f, type: 3}
      propertyPath: m_LocalRotation.w
      value: 1
      objectReference: {fileID: 0}
    - target: {fileID: 4801533614458288, guid: 668f40e714e20ed499014cc822acdb9f, type: 3}
      propertyPath: m_LocalRotation.x
      value: -0
      objectReference: {fileID: 0}
    - target: {fileID: 4801533614458288, guid: 668f40e714e20ed499014cc822acdb9f, type: 3}
      propertyPath: m_LocalRotation.y
      value: -0
      objectReference: {fileID: 0}
    - target: {fileID: 4801533614458288, guid: 668f40e714e20ed499014cc822acdb9f, type: 3}
      propertyPath: m_LocalRotation.z
      value: -0
      objectReference: {fileID: 0}
    m_RemovedComponents: []
  m_SourcePrefab: {fileID: 100100000, guid: 668f40e714e20ed499014cc822acdb9f, type: 3}
--- !u!4 &850354335 stripped
Transform:
  m_CorrespondingSourceObject: {fileID: 4872461970388222, guid: 9049f178339a1ec49b8d10542e9d6787, type: 3}
  m_PrefabInstance: {fileID: 1144760112}
  m_PrefabAsset: {fileID: 0}
--- !u!4 &908628092 stripped
Transform:
  m_CorrespondingSourceObject: {fileID: 4801533614458288, guid: 668f40e714e20ed499014cc822acdb9f, type: 3}
  m_PrefabInstance: {fileID: 841654839}
  m_PrefabAsset: {fileID: 0}
--- !u!1001 &1084886108
PrefabInstance:
  m_ObjectHideFlags: 0
  serializedVersion: 2
  m_Modification:
    m_TransformParent: {fileID: 618600095}
    m_Modifications:
    - target: {fileID: 4317271542249194, guid: 38b63c01674358b448b15ee3a56538f5, type: 3}
      propertyPath: m_RootOrder
      value: 5
      objectReference: {fileID: 0}
    - target: {fileID: 4317271542249194, guid: 38b63c01674358b448b15ee3a56538f5, type: 3}
      propertyPath: m_LocalPosition.x
      value: 0
      objectReference: {fileID: 0}
    - target: {fileID: 4317271542249194, guid: 38b63c01674358b448b15ee3a56538f5, type: 3}
      propertyPath: m_LocalPosition.y
      value: 0
      objectReference: {fileID: 0}
    - target: {fileID: 4317271542249194, guid: 38b63c01674358b448b15ee3a56538f5, type: 3}
      propertyPath: m_LocalPosition.z
      value: -75
      objectReference: {fileID: 0}
    - target: {fileID: 4317271542249194, guid: 38b63c01674358b448b15ee3a56538f5, type: 3}
      propertyPath: m_LocalRotation.w
      value: 1
      objectReference: {fileID: 0}
    - target: {fileID: 4317271542249194, guid: 38b63c01674358b448b15ee3a56538f5, type: 3}
      propertyPath: m_LocalRotation.x
      value: -0
      objectReference: {fileID: 0}
    - target: {fileID: 4317271542249194, guid: 38b63c01674358b448b15ee3a56538f5, type: 3}
      propertyPath: m_LocalRotation.y
      value: -0
      objectReference: {fileID: 0}
    - target: {fileID: 4317271542249194, guid: 38b63c01674358b448b15ee3a56538f5, type: 3}
      propertyPath: m_LocalRotation.z
      value: -0
      objectReference: {fileID: 0}
    m_RemovedComponents: []
  m_SourcePrefab: {fileID: 100100000, guid: 38b63c01674358b448b15ee3a56538f5, type: 3}
--- !u!1001 &1114333476
PrefabInstance:
  m_ObjectHideFlags: 0
  serializedVersion: 2
  m_Modification:
    m_TransformParent: {fileID: 618600095}
    m_Modifications:
    - target: {fileID: 4136763724114856, guid: 137404c3ccadbc94c8eafe555ab8aaee, type: 3}
      propertyPath: m_RootOrder
      value: 11
      objectReference: {fileID: 0}
    - target: {fileID: 4136763724114856, guid: 137404c3ccadbc94c8eafe555ab8aaee, type: 3}
      propertyPath: m_LocalPosition.x
      value: 20
      objectReference: {fileID: 0}
    - target: {fileID: 4136763724114856, guid: 137404c3ccadbc94c8eafe555ab8aaee, type: 3}
      propertyPath: m_LocalPosition.y
      value: 0
      objectReference: {fileID: 0}
    - target: {fileID: 4136763724114856, guid: 137404c3ccadbc94c8eafe555ab8aaee, type: 3}
      propertyPath: m_LocalPosition.z
      value: -60
      objectReference: {fileID: 0}
    - target: {fileID: 4136763724114856, guid: 137404c3ccadbc94c8eafe555ab8aaee, type: 3}
      propertyPath: m_LocalRotation.w
      value: 1
      objectReference: {fileID: 0}
    - target: {fileID: 4136763724114856, guid: 137404c3ccadbc94c8eafe555ab8aaee, type: 3}
      propertyPath: m_LocalRotation.x
      value: -0
      objectReference: {fileID: 0}
    - target: {fileID: 4136763724114856, guid: 137404c3ccadbc94c8eafe555ab8aaee, type: 3}
      propertyPath: m_LocalRotation.y
      value: -0
      objectReference: {fileID: 0}
    - target: {fileID: 4136763724114856, guid: 137404c3ccadbc94c8eafe555ab8aaee, type: 3}
      propertyPath: m_LocalRotation.z
      value: -0
      objectReference: {fileID: 0}
    m_RemovedComponents: []
  m_SourcePrefab: {fileID: 100100000, guid: 137404c3ccadbc94c8eafe555ab8aaee, type: 3}
--- !u!1001 &1144760112
PrefabInstance:
  m_ObjectHideFlags: 0
  serializedVersion: 2
  m_Modification:
    m_TransformParent: {fileID: 618600095}
    m_Modifications:
    - target: {fileID: 4872461970388222, guid: 9049f178339a1ec49b8d10542e9d6787, type: 3}
      propertyPath: m_RootOrder
      value: 1
      objectReference: {fileID: 0}
    - target: {fileID: 4872461970388222, guid: 9049f178339a1ec49b8d10542e9d6787, type: 3}
      propertyPath: m_LocalPosition.x
      value: 0
      objectReference: {fileID: 0}
    - target: {fileID: 4872461970388222, guid: 9049f178339a1ec49b8d10542e9d6787, type: 3}
      propertyPath: m_LocalPosition.y
      value: 0
      objectReference: {fileID: 0}
    - target: {fileID: 4872461970388222, guid: 9049f178339a1ec49b8d10542e9d6787, type: 3}
      propertyPath: m_LocalPosition.z
      value: -15
      objectReference: {fileID: 0}
    - target: {fileID: 4872461970388222, guid: 9049f178339a1ec49b8d10542e9d6787, type: 3}
      propertyPath: m_LocalRotation.w
      value: 1
      objectReference: {fileID: 0}
    - target: {fileID: 4872461970388222, guid: 9049f178339a1ec49b8d10542e9d6787, type: 3}
      propertyPath: m_LocalRotation.x
      value: -0
      objectReference: {fileID: 0}
    - target: {fileID: 4872461970388222, guid: 9049f178339a1ec49b8d10542e9d6787, type: 3}
      propertyPath: m_LocalRotation.y
      value: -0
      objectReference: {fileID: 0}
    - target: {fileID: 4872461970388222, guid: 9049f178339a1ec49b8d10542e9d6787, type: 3}
      propertyPath: m_LocalRotation.z
      value: -0
      objectReference: {fileID: 0}
    m_RemovedComponents: []
  m_SourcePrefab: {fileID: 100100000, guid: 9049f178339a1ec49b8d10542e9d6787, type: 3}
--- !u!4 &1164609135 stripped
Transform:
  m_CorrespondingSourceObject: {fileID: 4578466178321354, guid: 4a40092bbc207004fa51b938b96005eb, type: 3}
  m_PrefabInstance: {fileID: 387840}
  m_PrefabAsset: {fileID: 0}
--- !u!1001 &1378284299
PrefabInstance:
  m_ObjectHideFlags: 0
  serializedVersion: 2
  m_Modification:
    m_TransformParent: {fileID: 618600095}
    m_Modifications:
    - target: {fileID: 4479030589858862, guid: ec6c320a41b48f448b4f67e0c941f00d, type: 3}
      propertyPath: m_RootOrder
      value: 4
      objectReference: {fileID: 0}
    - target: {fileID: 4479030589858862, guid: ec6c320a41b48f448b4f67e0c941f00d, type: 3}
      propertyPath: m_LocalPosition.x
      value: 0
      objectReference: {fileID: 0}
    - target: {fileID: 4479030589858862, guid: ec6c320a41b48f448b4f67e0c941f00d, type: 3}
      propertyPath: m_LocalPosition.y
      value: 0
      objectReference: {fileID: 0}
    - target: {fileID: 4479030589858862, guid: ec6c320a41b48f448b4f67e0c941f00d, type: 3}
      propertyPath: m_LocalPosition.z
      value: -60
      objectReference: {fileID: 0}
    - target: {fileID: 4479030589858862, guid: ec6c320a41b48f448b4f67e0c941f00d, type: 3}
      propertyPath: m_LocalRotation.w
      value: 1
      objectReference: {fileID: 0}
    - target: {fileID: 4479030589858862, guid: ec6c320a41b48f448b4f67e0c941f00d, type: 3}
      propertyPath: m_LocalRotation.x
      value: -0
      objectReference: {fileID: 0}
    - target: {fileID: 4479030589858862, guid: ec6c320a41b48f448b4f67e0c941f00d, type: 3}
      propertyPath: m_LocalRotation.y
      value: -0
      objectReference: {fileID: 0}
    - target: {fileID: 4479030589858862, guid: ec6c320a41b48f448b4f67e0c941f00d, type: 3}
      propertyPath: m_LocalRotation.z
      value: -0
      objectReference: {fileID: 0}
    m_RemovedComponents: []
  m_SourcePrefab: {fileID: 100100000, guid: ec6c320a41b48f448b4f67e0c941f00d, type: 3}
--- !u!1001 &1424202012
PrefabInstance:
  m_ObjectHideFlags: 0
  serializedVersion: 2
  m_Modification:
    m_TransformParent: {fileID: 618600095}
    m_Modifications:
    - target: {fileID: 4157301896411390, guid: dc92f6c59177d3b48834d869261d80b1, type: 3}
      propertyPath: m_RootOrder
      value: 2
      objectReference: {fileID: 0}
    - target: {fileID: 4157301896411390, guid: dc92f6c59177d3b48834d869261d80b1, type: 3}
      propertyPath: m_LocalPosition.x
      value: 0
      objectReference: {fileID: 0}
    - target: {fileID: 4157301896411390, guid: dc92f6c59177d3b48834d869261d80b1, type: 3}
      propertyPath: m_LocalPosition.y
      value: 0
      objectReference: {fileID: 0}
    - target: {fileID: 4157301896411390, guid: dc92f6c59177d3b48834d869261d80b1, type: 3}
      propertyPath: m_LocalPosition.z
      value: -30
      objectReference: {fileID: 0}
    - target: {fileID: 4157301896411390, guid: dc92f6c59177d3b48834d869261d80b1, type: 3}
      propertyPath: m_LocalRotation.w
      value: 1
      objectReference: {fileID: 0}
    - target: {fileID: 4157301896411390, guid: dc92f6c59177d3b48834d869261d80b1, type: 3}
      propertyPath: m_LocalRotation.x
      value: -0
      objectReference: {fileID: 0}
    - target: {fileID: 4157301896411390, guid: dc92f6c59177d3b48834d869261d80b1, type: 3}
      propertyPath: m_LocalRotation.y
      value: -0
      objectReference: {fileID: 0}
    - target: {fileID: 4157301896411390, guid: dc92f6c59177d3b48834d869261d80b1, type: 3}
      propertyPath: m_LocalRotation.z
      value: -0
      objectReference: {fileID: 0}
    m_RemovedComponents: []
  m_SourcePrefab: {fileID: 100100000, guid: dc92f6c59177d3b48834d869261d80b1, type: 3}
--- !u!4 &1516114339 stripped
Transform:
  m_CorrespondingSourceObject: {fileID: 4136763724114856, guid: 137404c3ccadbc94c8eafe555ab8aaee, type: 3}
  m_PrefabInstance: {fileID: 1114333476}
  m_PrefabAsset: {fileID: 0}
--- !u!4 &1644940473 stripped
Transform:
  m_CorrespondingSourceObject: {fileID: 4157301896411390, guid: dc92f6c59177d3b48834d869261d80b1, type: 3}
  m_PrefabInstance: {fileID: 1424202012}
  m_PrefabAsset: {fileID: 0}
--- !u!4 &1692458545 stripped
Transform:
  m_CorrespondingSourceObject: {fileID: 4720436039580920, guid: 0478b1e28fd9831458b0f051b9d2ad8b, type: 3}
  m_PrefabInstance: {fileID: 559983127}
  m_PrefabAsset: {fileID: 0}
--- !u!4 &1763176923 stripped
Transform:
  m_CorrespondingSourceObject: {fileID: 4479030589858862, guid: ec6c320a41b48f448b4f67e0c941f00d, type: 3}
  m_PrefabInstance: {fileID: 1378284299}
  m_PrefabAsset: {fileID: 0}
--- !u!4 &1810757339 stripped
Transform:
  m_CorrespondingSourceObject: {fileID: 4766139130558152, guid: aa5781bb5b506524782c6e082a5127e9, type: 3}
  m_PrefabInstance: {fileID: 615843213}
  m_PrefabAsset: {fileID: 0}
--- !u!1 &1828872409
GameObject:
  m_ObjectHideFlags: 0
  m_CorrespondingSourceObject: {fileID: 0}
  m_PrefabInstance: {fileID: 0}
  m_PrefabAsset: {fileID: 0}
  serializedVersion: 6
  m_Component:
  - component: {fileID: 1828872414}
  - component: {fileID: 1828872413}
  - component: {fileID: 1828872411}
  - component: {fileID: 1828872410}
  m_Layer: 0
  m_Name: Main Camera
  m_TagString: MainCamera
  m_Icon: {fileID: 0}
  m_NavMeshLayer: 0
  m_StaticEditorFlags: 0
  m_IsActive: 1
--- !u!81 &1828872410
AudioListener:
  m_ObjectHideFlags: 0
  m_CorrespondingSourceObject: {fileID: 0}
  m_PrefabInstance: {fileID: 0}
  m_PrefabAsset: {fileID: 0}
  m_GameObject: {fileID: 1828872409}
  m_Enabled: 1
--- !u!124 &1828872411
Behaviour:
  m_ObjectHideFlags: 0
  m_CorrespondingSourceObject: {fileID: 0}
  m_PrefabInstance: {fileID: 0}
  m_PrefabAsset: {fileID: 0}
  m_GameObject: {fileID: 1828872409}
  m_Enabled: 1
--- !u!20 &1828872413
Camera:
  m_ObjectHideFlags: 0
  m_CorrespondingSourceObject: {fileID: 0}
  m_PrefabInstance: {fileID: 0}
  m_PrefabAsset: {fileID: 0}
  m_GameObject: {fileID: 1828872409}
  m_Enabled: 1
  serializedVersion: 2
  m_ClearFlags: 1
  m_BackGroundColor: {r: 0.19215687, g: 0.3019608, b: 0.4745098, a: 0}
  m_projectionMatrixMode: 1
  m_GateFitMode: 2
  m_FOVAxisMode: 0
  m_SensorSize: {x: 36, y: 24}
  m_LensShift: {x: 0, y: 0}
  m_FocalLength: 50
  m_NormalizedViewPortRect:
    serializedVersion: 2
    x: 0
    y: 0
    width: 1
    height: 1
  near clip plane: 0.3
  far clip plane: 1000
  field of view: 60
  orthographic: 0
  orthographic size: 5
  m_Depth: -1
  m_CullingMask:
    serializedVersion: 2
    m_Bits: 4294967295
  m_RenderingPath: -1
  m_TargetTexture: {fileID: 0}
  m_TargetDisplay: 0
  m_TargetEye: 3
  m_HDR: 0
  m_AllowMSAA: 1
  m_AllowDynamicResolution: 0
  m_ForceIntoRT: 0
  m_OcclusionCulling: 1
  m_StereoConvergence: 10
  m_StereoSeparation: 0.022
--- !u!4 &1828872414
Transform:
  m_ObjectHideFlags: 0
  m_CorrespondingSourceObject: {fileID: 0}
  m_PrefabInstance: {fileID: 0}
  m_PrefabAsset: {fileID: 0}
  m_GameObject: {fileID: 1828872409}
  m_LocalRotation: {x: 0, y: 0, z: 0, w: 1}
  m_LocalPosition: {x: 0, y: 1, z: -10}
  m_LocalScale: {x: 1, y: 1, z: 1}
  m_Children: []
  m_Father: {fileID: 0}
  m_RootOrder: 0
  m_LocalEulerAnglesHint: {x: 0, y: 0, z: 0}
--- !u!1001 &1899278540
PrefabInstance:
  m_ObjectHideFlags: 0
  serializedVersion: 2
  m_Modification:
    m_TransformParent: {fileID: 618600095}
    m_Modifications:
    - target: {fileID: 4748122837939596, guid: ad19842cc2550fc488240fe1efb03aeb, type: 3}
      propertyPath: m_RootOrder
      value: 6
      objectReference: {fileID: 0}
    - target: {fileID: 4748122837939596, guid: ad19842cc2550fc488240fe1efb03aeb, type: 3}
      propertyPath: m_LocalPosition.x
      value: 0
      objectReference: {fileID: 0}
    - target: {fileID: 4748122837939596, guid: ad19842cc2550fc488240fe1efb03aeb, type: 3}
      propertyPath: m_LocalPosition.y
      value: 0
      objectReference: {fileID: 0}
    - target: {fileID: 4748122837939596, guid: ad19842cc2550fc488240fe1efb03aeb, type: 3}
      propertyPath: m_LocalPosition.z
      value: -90
      objectReference: {fileID: 0}
    - target: {fileID: 4748122837939596, guid: ad19842cc2550fc488240fe1efb03aeb, type: 3}
      propertyPath: m_LocalRotation.w
      value: 1
      objectReference: {fileID: 0}
    - target: {fileID: 4748122837939596, guid: ad19842cc2550fc488240fe1efb03aeb, type: 3}
      propertyPath: m_LocalRotation.x
      value: -0
      objectReference: {fileID: 0}
    - target: {fileID: 4748122837939596, guid: ad19842cc2550fc488240fe1efb03aeb, type: 3}
      propertyPath: m_LocalRotation.y
      value: -0
      objectReference: {fileID: 0}
    - target: {fileID: 4748122837939596, guid: ad19842cc2550fc488240fe1efb03aeb, type: 3}
      propertyPath: m_LocalRotation.z
      value: -0
      objectReference: {fileID: 0}
    m_RemovedComponents: []
  m_SourcePrefab: {fileID: 100100000, guid: ad19842cc2550fc488240fe1efb03aeb, type: 3}
--- !u!4 &2123746356 stripped
Transform:
  m_CorrespondingSourceObject: {fileID: 4317271542249194, guid: 38b63c01674358b448b15ee3a56538f5, type: 3}
  m_PrefabInstance: {fileID: 1084886108}
  m_PrefabAsset: {fileID: 0}
